{
    "game_detail": {
        "id": 2346134,
        "match_date": "2021-02-26T19:00:00",
        "bo": "bo3",
        "team1_id": 9996,
        "team2_id": 8871,
        "insights": [
            {
                "group_name": "Main - To Win",
                "header": [
                    {
                        "title": "H2H",
                        "leading": "1/0",
                        "trailing": "0/1",
                        "breakdown": [
                            {
                                "match_id": 2346304,
                                "match_date": "2021-01-27T19:00:00",
                                "team_id": 10977,
                                "team_name": "Trident",
                                "opponent_id": 10192,
                                "opponent_name": "eXploit",
                                "is_favourite": false,
                                "team_rank": 76,
                                "team_win": true,
                                "team_win_map": 2,
                                "opponent_win_map": 0,
                                "bo": 3
                            },
                            {
                                "match_id": 2346304,
                                "match_date": "2021-01-27T19:00:00",
                                "team_id": 10192,
                                "team_name": "eXploit",
                                "opponent_id": 10977,
                                "opponent_name": "Trident",
                                "is_favourite": false,
                                "team_rank": 76,
                                "team_win": false,
                                "team_win_map": 0,
                                "opponent_win_map": 2,
                                "bo": 3
                            }
                        ]
                    },
                    {
                        "title": "Favourite",
                        "leading": "2/2",
                        "trailing": "0/1",
                        "breakdown": [
                            {
                                "match_id": 2346521,
                                "match_date": "2021-02-15T08:00:00",
                                "team_id": 10977,
                                "team_name": "Trident",
                                "opponent_id": 10621,
                                "opponent_name": "1WIN",
                                "is_favourite": true,
                                "team_rank": 75,
                                "team_win": false,
                                "team_win_map": 1,
                                "opponent_win_map": 2,
                                "bo": 3
                            },
                            {
                                "match_id": 2346310,
                                "match_date": "2021-01-28T19:00:00",
                                "team_id": 10977,
                                "team_name": "Trident",
                                "opponent_id": 10960,
                                "opponent_name": "Young Ninjas",
                                "is_favourite": true,
                                "team_rank": 72,
                                "team_win": true,
                                "team_win_map": 2,
                                "opponent_win_map": 0,
                                "bo": 3
                            },
                            {
                                "match_id": 2346273,
                                "match_date": "2021-01-26T19:00:00",
                                "team_id": 10977,
                                "team_name": "Trident",
                                "opponent_id": 9928,
                                "opponent_name": "GamerLegion",
                                "is_favourite": true,
                                "team_rank": 54,
                                "team_win": false,
                                "team_win_map": 0,
                                "opponent_win_map": 2,
                                "bo": 3
                            },
                            {
                                "match_id": 2346093,
                                "match_date": "2021-01-19T01:10:00",
                                "team_id": 10977,
                                "team_name": "Trident",
                                "opponent_id": 5310,
                                "opponent_name": "HellRaisers",
                                "is_favourite": true,
                                "team_rank": 37,
                                "team_win": true,
                                "team_win_map": 2,
                                "opponent_win_map": 0,
                                "bo": 3
                            },
                            {
                                "match_id": 2346274,
                                "match_date": "2021-01-26T22:00:00",
                                "team_id": 10192,
                                "team_name": "eXploit",
                                "opponent_id": 10105,
                                "opponent_name": "SGpro",
                                "is_favourite": true,
                                "team_rank": 76,
                                "team_win": false,
                                "team_win_map": 0,
                                "opponent_win_map": 2,
                                "bo": 3
                            }
                        ]
                    },
                    {
                        "title": "Underdog",
                        "leading": "3/2",
                        "trailing": "3/2",
                        "breakdown": [
                            {
                                "match_id": 2346671,
                                "match_date": "2021-02-23T17:40:00",
                                "team_id": 10977,
                                "team_name": "Trident",
                                "opponent_id": 10386,
                                "opponent_name": "SKADE",
                                "is_favourite": false,
                                "team_rank": 81,
                                "team_win": false,
                                "team_win_map": 0,
                                "opponent_win_map": 2,
                                "bo": 3
                            },
                            {
                                "match_id": 2346648,
                                "match_date": "2021-02-22T14:00:00",
                                "team_id": 10977,
                                "team_name": "Trident",
                                "opponent_id": 10894,
                                "opponent_name": "Case",
                                "is_favourite": false,
                                "team_rank": 85,
                                "team_win": true,
                                "team_win_map": 2,
                                "opponent_win_map": 0,
                                "bo": 3
                            },
                            {
                                "match_id": 2346552,
                                "match_date": "2021-02-19T08:00:00",
                                "team_id": 10977,
                                "team_name": "Trident",
                                "opponent_id": 10621,
                                "opponent_name": "1WIN",
                                "is_favourite": false,
                                "team_rank": 77,
                                "team_win": true,
                                "team_win_map": 2,
                                "opponent_win_map": 1,
                                "bo": 3
                            },
                            {
                                "match_id": 2346523,
                                "match_date": "2021-02-15T11:55:00",
                                "team_id": 10977,
                                "team_name": "Trident",
                                "opponent_id": 10888,
                                "opponent_name": "EC Kyiv",
                                "is_favourite": false,
                                "team_rank": 77,
                                "team_win": true,
                                "team_win_map": 2,
                                "opponent_win_map": 1,
                                "bo": 3
                            },
                            {
                                "match_id": 2346323,
                                "match_date": "2021-01-30T01:35:00",
                                "team_id": 10977,
                                "team_name": "Trident",
                                "opponent_id": 10888,
                                "opponent_name": "EC Kyiv",
                                "is_favourite": false,
                                "team_rank": 84,
                                "team_win": false,
                                "team_win_map": 0,
                                "opponent_win_map": 2,
                                "bo": 3
                            },
                            {
                                "match_id": 2346669,
                                "match_date": "2021-02-23T11:00:00",
                                "team_id": 10192,
                                "team_name": "eXploit",
                                "opponent_id": 11001,
                                "opponent_name": "ONYX",
                                "is_favourite": false,
                                "team_rank": 98,
                                "team_win": true,
                                "team_win_map": 2,
                                "opponent_win_map": 0,
                                "bo": 3
                            },
                            {
                                "match_id": 2346666,
                                "match_date": "2021-02-22T14:05:00",
                                "team_id": 10192,
                                "team_name": "eXploit",
                                "opponent_id": 10386,
                                "opponent_name": "SKADE",
                                "is_favourite": false,
                                "team_rank": 111,
                                "team_win": false,
                                "team_win_map": 0,
                                "opponent_win_map": 2,
                                "bo": 3
                            },
                            {
                                "match_id": 2346558,
                                "match_date": "2021-02-19T14:00:00",
                                "team_id": 10192,
                                "team_name": "eXploit",
                                "opponent_id": 10894,
                                "opponent_name": "Case",
                                "is_favourite": false,
                                "team_rank": 100,
                                "team_win": true,
                                "team_win_map": 2,
                                "opponent_win_map": 1,
                                "bo": 3
                            },
                            {
                                "match_id": 2346543,
                                "match_date": "2021-02-17T17:25:00",
                                "team_id": 10192,
                                "team_name": "eXploit",
                                "opponent_id": 8113,
                                "opponent_name": "Sharks",
                                "is_favourite": false,
                                "team_rank": 100,
                                "team_win": false,
                                "team_win_map": 0,
                                "opponent_win_map": 2,
                                "bo": 3
                            },
                            {
                                "match_id": 2346537,
                                "match_date": "2021-02-17T14:15:00",
                                "team_id": 10192,
                                "team_name": "eXploit",
                                "opponent_id": 8515,
                                "opponent_name": "OFFSET",
                                "is_favourite": false,
                                "team_rank": 100,
                                "team_win": true,
                                "team_win_map": 2,
                                "opponent_win_map": 1,
                                "bo": 3
                            }
                        ]
                    },
                    {
                        "title": "Same Opponent",
                        "leading": "1/1",
                        "trailing": "1/1",
                        "breakdown": [
                            {
                                "match_id": 2346671,
                                "match_date": "2021-02-23T17:40:00",
                                "team_id": 10977,
                                "team_name": "Trident",
                                "opponent_id": 10386,
                                "opponent_name": "SKADE",
                                "is_favourite": false,
                                "team_rank": 81,
                                "team_win": false,
                                "team_win_map": 0,
                                "opponent_win_map": 2,
                                "bo": 3
                            },
                            {
                                "match_id": 2346648,
                                "match_date": "2021-02-22T14:00:00",
                                "team_id": 10977,
                                "team_name": "Trident",
                                "opponent_id": 10894,
                                "opponent_name": "Case",
                                "is_favourite": false,
                                "team_rank": 85,
                                "team_win": true,
                                "team_win_map": 2,
                                "opponent_win_map": 0,
                                "bo": 3
                            },
                            {
                                "match_id": 2346666,
                                "match_date": "2021-02-22T14:05:00",
                                "team_id": 10192,
                                "team_name": "eXploit",
                                "opponent_id": 10386,
                                "opponent_name": "SKADE",
                                "is_favourite": false,
                                "team_rank": 111,
                                "team_win": false,
                                "team_win_map": 0,
                                "opponent_win_map": 2,
                                "bo": 3
                            },
                            {
                                "match_id": 2346558,
                                "match_date": "2021-02-19T14:00:00",
                                "team_id": 10192,
                                "team_name": "eXploit",
                                "opponent_id": 10894,
                                "opponent_name": "Case",
                                "is_favourite": false,
                                "team_rank": 100,
                                "team_win": true,
                                "team_win_map": 2,
                                "opponent_win_map": 1,
                                "bo": 3
                            }
                        ]
                    }
                ]
            }
        ],
        "map_stats": [
            {
                "id": 2345964,
                "match_date": "2020-12-20T23:00:00",
                "map_round": 1,
                "map_stat_id": 113569,
                "map_name": "Mirage",
                "match_id": 2345964,
                "team_id": 9996,
                "team_name": "9z",
                "team_round_history": "-1,-1,-1,0,0,0,-2,-2,-1,-2,0,-2,0,-1,-1|2,0,0,0,0,3,0,0,0,0,0,0,2,0,0",
                "team_rank": 134,
                "team_score": 13,
                "opponent_id": 8902,
                "opponent_name": "DETONA",
                "opponent_round_history": "0,0,0,2,1,1,0,0,0,0,2,0,1,0,0|0,-1,-1,-1,-2,0,-1,-1,-1,-1,-2,-1,0,-1,0",
                "opponent_rank": 145,
                "opponent_score": 16,
                "pistol_1": true,
                "pistol_16": true,
                "is_win": false,
                "team_first_half_score": -10,
                "opponent_first_half_score": 5
            },
            {
                "id": 2345964,
                "match_date": "2020-12-20T23:00:00",
                "map_round": 2,
                "map_stat_id": 113571,
                "map_name": "Inferno",
                "match_id": 2345964,
                "team_id": 9996,
                "team_name": "9z",
                "team_round_history": "0,0,0,3,0,0,0,0,3,0,1,1,1,0,1|0,0,0,0,0,0,0,0,0,0,0,0,0,0,0",
                "team_rank": 134,
                "team_score": 6,
                "opponent_id": 8902,
                "opponent_name": "DETONA",
                "opponent_round_history": "-1,-2,-1,0,-1,-1,-2,-2,0,-2,0,0,0,-2,0|2,1,1,1,1,2,1,0,0,0,0,0,0,0,0",
                "opponent_rank": 145,
                "opponent_score": 16,
                "pistol_1": false,
                "pistol_16": false,
                "is_win": false,
                "team_first_half_score": 6,
                "opponent_first_half_score": -9
            },
            {
                "id": 2345962,
                "match_date": "2020-12-19T21:00:00",
                "map_round": 1,
                "map_stat_id": 113515,
                "map_name": "Nuke",
                "match_id": 2345962,
                "team_id": 9996,
                "team_name": "9z",
                "team_round_history": "0,0,0,2,1,1,2,1,1,1,1,1,2,1,1|-2,-2,-2,0,-1,0,0,0,0,0,0,0,0,0,0",
                "team_rank": 134,
                "team_score": 16,
                "opponent_id": 8113,
                "opponent_name": "Sharks",
                "opponent_round_history": "-1,-1,-2,0,0,0,0,0,0,0,0,0,0,0,0|0,0,0,2,0,0,0,0,0,0,0,0,0,0,0",
                "opponent_rank": 238,
                "opponent_score": 4,
                "pistol_1": false,
                "pistol_16": true,
                "is_win": true,
                "team_first_half_score": 12,
                "opponent_first_half_score": -3
            },
            {
                "id": 2345962,
                "match_date": "2020-12-19T21:00:00",
                "map_round": 2,
                "map_stat_id": 113517,
                "map_name": "Mirage",
                "match_id": 2345962,
                "team_id": 9996,
                "team_name": "9z",
                "team_round_history": "0,0,0,0,-2,0,-1,-1,-1,0,0,-1,-1,-2,-1|0,1,2,1,2,3,1,1,1,0,0,0,0,0,0",
                "team_rank": 134,
                "team_score": 16,
                "opponent_id": 8113,
                "opponent_name": "Sharks",
                "opponent_round_history": "2,2,1,1,0,1,0,0,0,1,1,0,0,0,0|-1,0,0,0,0,0,0,0,0,0,0,0,0,0,0",
                "opponent_rank": 238,
                "opponent_score": 8,
                "pistol_1": false,
                "pistol_16": false,
                "is_win": true,
                "team_first_half_score": -8,
                "opponent_first_half_score": 7
            },
            {
                "id": 2345954,
                "match_date": "2020-12-17T23:50:00",
                "map_round": 1,
                "map_stat_id": 113423,
                "map_name": "Dust2",
                "match_id": 2345954,
                "team_id": 9996,
                "team_name": "9z",
                "team_round_history": "-1,-2,-1,0,-2,0,-1,-1,-1,-1,0,-2,-1,0,-1|1,0,0,0,1,0,0,0,0,0,1,1,1,0,0",
                "team_rank": 134,
                "team_score": 16,
                "opponent_id": 10815,
                "opponent_name": "Havan Liberty",
                "opponent_round_history": "0,0,0,1,0,2,0,0,0,0,3,0,0,1,0|0,-2,-2,-1,0,-1,-1,-1,-2,-2,0,0,0,0,0",
                "opponent_rank": 129,
                "opponent_score": 12,
                "pistol_1": true,
                "pistol_16": true,
                "is_win": true,
                "team_first_half_score": -11,
                "opponent_first_half_score": 4
            },
            {
                "id": 2345923,
                "match_date": "2020-12-17T18:00:00",
                "map_round": 1,
                "map_stat_id": 113404,
                "map_name": "Dust2",
                "match_id": 2345923,
                "team_id": 9996,
                "team_name": "9z",
                "team_round_history": "-1,-1,-1,-2,-1,-1,-1,-1,-1,0,0,0,0,0,0|1,1,0,2,0,0,0,1,0,0,0,0,2,1,1",
                "team_rank": 134,
                "team_score": 16,
                "opponent_id": 7176,
                "opponent_name": "RED Canids",
                "opponent_round_history": "0,0,0,0,0,0,0,0,0,1,2,3,1,3,2|0,0,-2,0,-2,-1,-1,0,-1,-1,-2,-2,0,0,0",
                "opponent_rank": 131,
                "opponent_score": 14,
                "pistol_1": true,
                "pistol_16": true,
                "is_win": true,
                "team_first_half_score": -9,
                "opponent_first_half_score": 6
            },
            {
                "id": 2345907,
                "match_date": "2020-12-12T07:30:00",
                "map_round": 1,
                "map_stat_id": 113220,
                "map_name": "Nuke",
                "match_id": 2345907,
                "team_id": 8871,
                "team_name": "Coscu Army",
                "team_round_history": "2,1,1,2,0,0,0,0,2,0,0,1,0,0,0|-1,-2,-1,0,-1,-2,-1,-1,-1,0,0,-2,0,0,0",
                "team_rank": 205,
                "team_score": 16,
                "opponent_id": 10786,
                "opponent_name": "River Plate",
                "opponent_round_history": "0,0,0,0,-1,-2,-1,-1,0,-2,-1,0,-1,-1,-1|0,0,0,1,0,0,0,0,0,1,3,0,2,2,2",
                "opponent_rank": 193,
                "opponent_score": 19,
                "pistol_1": true,
                "pistol_16": true,
                "is_win": false,
                "team_first_half_score": 6,
                "opponent_first_half_score": -9
            },
            {
                "id": 2345907,
                "match_date": "2020-12-12T07:30:00",
                "map_round": 2,
                "map_stat_id": 113223,
                "map_name": "Mirage",
                "match_id": 2345907,
                "team_id": 8871,
                "team_name": "Coscu Army",
                "team_round_history": "-1,-1,0,-1,-1,0,0,0,0,-1,0,0,0,0,-1|2,2,1,1,0,0,0,0,0,0,1,1,1,1,0",
                "team_rank": 205,
                "team_score": 14,
                "opponent_id": 10786,
                "opponent_name": "River Plate",
                "opponent_round_history": "0,0,1,0,0,1,1,1,1,0,1,1,2,1,0|0,0,0,0,-2,-1,-1,-1,-1,-2,0,0,0,0,-1",
                "opponent_rank": 193,
                "opponent_score": 16,
                "pistol_1": true,
                "pistol_16": true,
                "is_win": false,
                "team_first_half_score": -6,
                "opponent_first_half_score": 9
            },
            {
                "id": 2345903,
                "match_date": "2020-12-11T17:00:00",
                "map_round": 1,
                "map_stat_id": 113211,
                "map_name": "Dust2",
                "match_id": 2345903,
                "team_id": 8871,
                "team_name": "Coscu Army",
                "team_round_history": "-1,-1,-1,-1,-1,-1,-1,-2,-1,-2,-1,-1,-1,0,0|1,2,2,0,0,0,0,0,0,0,0,0,0,0,0",
                "team_rank": 205,
                "team_score": 16,
                "opponent_id": 10785,
                "opponent_name": "Wygers AR",
                "opponent_round_history": "0,0,0,0,0,0,0,0,0,0,0,0,0,1,1|0,0,0,0,0,0,0,0,0,0,0,0,0,0,0",
                "opponent_rank": null,
                "opponent_score": 2,
                "pistol_1": true,
                "pistol_16": true,
                "is_win": true,
                "team_first_half_score": -13,
                "opponent_first_half_score": 2
            },
            {
                "id": 2345903,
                "match_date": "2020-12-11T17:00:00",
                "map_round": 2,
                "map_stat_id": 113214,
                "map_name": "Inferno",
                "match_id": 2345903,
                "team_id": 8871,
                "team_name": "Coscu Army",
                "team_round_history": "0,1,1,1,0,3,1,1,1,1,0,1,1,1,1|0,0,0,0,-1,-1,-1,0,-1,0,0,0,0,0,0",
                "team_rank": 205,
                "team_score": 16,
                "opponent_id": 10785,
                "opponent_name": "Wygers AR",
                "opponent_round_history": "-1,0,0,0,-2,0,0,0,0,0,-1,0,0,0,0|1,1,2,1,0,0,0,1,0,0,0,0,0,0,0",
                "opponent_rank": null,
                "opponent_score": 8,
                "pistol_1": false,
                "pistol_16": false,
                "is_win": true,
                "team_first_half_score": 12,
                "opponent_first_half_score": -3
            },
            {
                "id": 2345899,
                "match_date": "2020-12-12T21:45:00",
                "map_round": 2,
                "map_stat_id": 113249,
                "map_name": "Mirage",
                "match_id": 2345899,
                "team_id": 9996,
                "team_name": "9z",
                "team_round_history": "0,0,0,0,0,1,0,1,1,1,0,2,1,1,2|0,0,-1,0,0,-1,-1,0,0,0,-2,-2,-1,-1,-1",
                "team_rank": 134,
                "team_score": 16,
                "opponent_id": 6799,
                "opponent_name": "Furious",
                "opponent_round_history": "-2,-2,-1,-2,-2,0,-2,0,0,0,-2,0,0,0,0|2,2,0,1,1,0,0,1,2,1,0,0,0,0,0",
                "opponent_rank": 184,
                "opponent_score": 14,
                "pistol_1": false,
                "pistol_16": false,
                "is_win": true,
                "team_first_half_score": 8,
                "opponent_first_half_score": -7
            },
            {
                "id": 2345899,
                "match_date": "2020-12-12T21:45:00",
                "map_round": 1,
                "map_stat_id": 113248,
                "map_name": "Nuke",
                "match_id": 2345899,
                "team_id": 9996,
                "team_name": "9z",
                "team_round_history": "1,0,0,0,0,0,1,0,1,1,1,0,1,0,0|0,0,0,0,-2,0,-1,-1,-1,-1,-1,0,0,0,0",
                "team_rank": 134,
                "team_score": 12,
                "opponent_id": 6799,
                "opponent_name": "Furious",
                "opponent_round_history": "0,-1,-1,-1,-1,-1,0,-2,0,0,0,-1,0,-1,-1|1,1,1,1,0,3,0,0,0,0,0,2,1,0,0",
                "opponent_rank": 184,
                "opponent_score": 16,
                "pistol_1": true,
                "pistol_16": false,
                "is_win": false,
                "team_first_half_score": 6,
                "opponent_first_half_score": -9
            },
            {
                "id": 2345899,
                "match_date": "2020-12-12T21:45:00",
                "map_round": 3,
                "map_stat_id": 113250,
                "map_name": "Inferno",
                "match_id": 2345899,
                "team_id": 9996,
                "team_name": "9z",
                "team_round_history": "2,0,0,0,0,1,0,1,1,1,1,2,0,0,0|0,0,0,0,0,-1,-2,0,0,-2,0,0,0,0,0",
                "team_rank": 134,
                "team_score": 10,
                "opponent_id": 6799,
                "opponent_name": "Furious",
                "opponent_round_history": "0,-1,-2,-1,-2,0,-1,0,0,0,0,0,-2,-2,-1|2,1,2,1,1,0,0,1,2,0,2,0,0,0,0",
                "opponent_rank": 184,
                "opponent_score": 16,
                "pistol_1": true,
                "pistol_16": false,
                "is_win": false,
                "team_first_half_score": 7,
                "opponent_first_half_score": -8
            },
            {
                "id": 2345582,
                "match_date": "2020-11-23T22:00:00",
                "map_round": 2,
                "map_stat_id": 112283,
                "map_name": "Nuke",
                "match_id": 2345582,
                "team_id": 9996,
                "team_name": "9z",
                "team_round_history": "0,0,0,0,0,-1,-1,-2,-1,0,0,0,0,-1,0|0,1,0,3,1,1,3,1,1,1,1,1,1,0,0",
                "team_rank": 124,
                "team_score": 16,
                "opponent_id": 10925,
                "opponent_name": "Royal Republic",
                "opponent_round_history": "2,1,1,3,1,0,0,0,0,3,1,3,2,0,1|-1,0,-2,0,0,0,0,0,0,0,0,0,0,0,0",
                "opponent_rank": 247,
                "opponent_score": 12,
                "pistol_1": false,
                "pistol_16": false,
                "is_win": true,
                "team_first_half_score": -5,
                "opponent_first_half_score": 10
            },
            {
                "id": 2345582,
                "match_date": "2020-11-23T22:00:00",
                "map_round": 1,
                "map_stat_id": 112281,
                "map_name": "Mirage",
                "match_id": 2345582,
                "team_id": 9996,
                "team_name": "9z",
                "team_round_history": "0,0,0,0,0,1,1,0,0,0,1,2,1,1,0|0,-2,-2,-1,-2,-1,-2,0,-2,-2,-1,-1,0,0,0",
                "team_rank": 124,
                "team_score": 16,
                "opponent_id": 10925,
                "opponent_name": "Royal Republic",
                "opponent_round_history": "-1,-2,-1,-1,-1,0,0,-2,-1,-1,0,0,0,0,-1|2,0,0,0,0,0,0,1,0,0,0,0,0,0,0",
                "opponent_rank": 247,
                "opponent_score": 11,
                "pistol_1": false,
                "pistol_16": false,
                "is_win": true,
                "team_first_half_score": 6,
                "opponent_first_half_score": -9
            },
            {
                "id": 2345578,
                "match_date": "2020-11-22T21:00:00",
                "map_round": 2,
                "map_stat_id": 112249,
                "map_name": "Inferno",
                "match_id": 2345578,
                "team_id": 9996,
                "team_name": "9z",
                "team_round_history": "1,0,0,1,1,1,1,0,0,0,0,0,0,0,0|0,0,-2,-1,-1,-1,-1,-1,-2,0,0,-2,0,0,0",
                "team_rank": 121,
                "team_score": 13,
                "opponent_id": 10815,
                "opponent_name": "Havan Liberty",
                "opponent_round_history": "0,-2,-2,0,0,0,0,-2,-1,-2,-2,-2,-1,-2,-1|1,2,0,0,0,0,0,0,0,3,2,0,2,2,0",
                "opponent_rank": 104,
                "opponent_score": 16,
                "pistol_1": true,
                "pistol_16": false,
                "is_win": false,
                "team_first_half_score": 5,
                "opponent_first_half_score": -10
            },
            {
                "id": 2345578,
                "match_date": "2020-11-22T21:00:00",
                "map_round": 1,
                "map_stat_id": 112248,
                "map_name": "Nuke",
                "match_id": 2345578,
                "team_id": 9996,
                "team_name": "9z",
                "team_round_history": "-1,0,0,0,0,0,0,0,0,-1,0,0,0,0,0|0,0,0,0,0,0,0,0,0,0,0,0,0,0,0",
                "team_rank": 121,
                "team_score": 2,
                "opponent_id": 10815,
                "opponent_name": "Havan Liberty",
                "opponent_round_history": "0,1,1,1,1,2,2,2,1,0,1,1,1,1,1|-1,-2,-1,0,0,0,0,0,0,0,0,0,0,0,0",
                "opponent_rank": 104,
                "opponent_score": 16,
                "pistol_1": true,
                "pistol_16": false,
                "is_win": false,
                "team_first_half_score": -2,
                "opponent_first_half_score": 13
            },
            {
                "id": 2345499,
                "match_date": "2020-11-19T22:45:00",
                "map_round": 1,
                "map_stat_id": 112061,
                "map_name": "Mirage",
                "match_id": 2345499,
                "team_id": 9996,
                "team_name": "9z",
                "team_round_history": "2,0,0,0,0,0,1,0,0,2,1,2,1,0,2|-1,-1,-1,-1,-1,0,-1,0,-1,0,0,-1,-1,0,0",
                "team_rank": 121,
                "team_score": 16,
                "opponent_id": 8871,
                "opponent_name": "Coscu Army",
                "opponent_round_history": "0,-1,-1,-1,-2,-2,0,-1,-1,0,0,0,0,-1,0|0,0,0,0,0,1,0,2,0,1,1,0,0,0,0",
                "opponent_rank": null,
                "opponent_score": 12,
                "pistol_1": true,
                "pistol_16": true,
                "is_win": true,
                "team_first_half_score": 7,
                "opponent_first_half_score": -8
            },
            {
                "id": 2345499,
                "match_date": "2020-11-19T22:45:00",
                "map_round": 1,
                "map_stat_id": 112061,
                "map_name": "Mirage",
                "match_id": 2345499,
                "team_id": 8871,
                "team_name": "Coscu Army",
                "team_round_history": "0,-1,-1,-1,-2,-2,0,-1,-1,0,0,0,0,-1,0|0,0,0,0,0,1,0,2,0,1,1,0,0,0,0",
                "team_rank": null,
                "team_score": 12,
                "opponent_id": 9996,
                "opponent_name": "9z",
                "opponent_round_history": "2,0,0,0,0,0,1,0,0,2,1,2,1,0,2|-1,-1,-1,-1,-1,0,-1,0,-1,0,0,-1,-1,0,0",
                "opponent_rank": 121,
                "opponent_score": 16,
                "pistol_1": false,
                "pistol_16": false,
                "is_win": false,
                "team_first_half_score": -8,
                "opponent_first_half_score": 7
            },
            {
                "id": 2345499,
                "match_date": "2020-11-19T22:45:00",
                "map_round": 2,
                "map_stat_id": 112062,
                "map_name": "Nuke",
                "match_id": 2345499,
                "team_id": 9996,
                "team_name": "9z",
                "team_round_history": "0,0,-1,0,0,0,0,-2,-1,-1,-1,-1,-1,-1,-1|0,0,0,0,0,1,1,1,0,1,1,1,1,0,0",
                "team_rank": 121,
                "team_score": 16,
                "opponent_id": 8871,
                "opponent_name": "Coscu Army",
                "opponent_round_history": "1,1,0,1,2,1,1,0,0,0,0,0,0,0,0|-1,-2,-1,-1,-1,0,0,0,-1,0,0,0,0,0,0",
                "opponent_rank": null,
                "opponent_score": 12,
                "pistol_1": false,
                "pistol_16": false,
                "is_win": true,
                "team_first_half_score": -9,
                "opponent_first_half_score": 6
            },
            {
                "id": 2345499,
                "match_date": "2020-11-19T22:45:00",
                "map_round": 2,
                "map_stat_id": 112062,
                "map_name": "Nuke",
                "match_id": 2345499,
                "team_id": 8871,
                "team_name": "Coscu Army",
                "team_round_history": "1,1,0,1,2,1,1,0,0,0,0,0,0,0,0|-1,-2,-1,-1,-1,0,0,0,-1,0,0,0,0,0,0",
                "team_rank": null,
                "team_score": 12,
                "opponent_id": 9996,
                "opponent_name": "9z",
                "opponent_round_history": "0,0,-1,0,0,0,0,-2,-1,-1,-1,-1,-1,-1,-1|0,0,0,0,0,1,1,1,0,1,1,1,1,0,0",
                "opponent_rank": 121,
                "opponent_score": 16,
                "pistol_1": true,
                "pistol_16": true,
                "is_win": false,
                "team_first_half_score": 6,
                "opponent_first_half_score": -9
            },
            {
                "id": 2345498,
                "match_date": "2020-11-25T00:00:00",
                "map_round": 1,
                "map_stat_id": 112317,
                "map_name": "Inferno",
                "match_id": 2345498,
                "team_id": 9996,
                "team_name": "9z",
                "team_round_history": "1,1,1,1,0,1,1,0,2,0,2,2,1,2,0|0,0,0,0,0,0,0,0,-2,-1,-1,0,0,0,0",
                "team_rank": 124,
                "team_score": 14,
                "opponent_id": 10815,
                "opponent_name": "Havan Liberty",
                "opponent_round_history": "0,0,0,0,-2,0,0,-2,0,-2,0,0,0,0,-1|2,1,1,2,3,1,1,1,0,0,0,3,1,2,1",
                "opponent_rank": 127,
                "opponent_score": 16,
                "pistol_1": true,
                "pistol_16": false,
                "is_win": false,
                "team_first_half_score": 11,
                "opponent_first_half_score": -4
            },
            {
                "id": 2345498,
                "match_date": "2020-11-25T00:00:00",
                "map_round": 2,
                "map_stat_id": 112318,
                "map_name": "Dust2",
                "match_id": 2345498,
                "team_id": 9996,
                "team_name": "9z",
                "team_round_history": "0,0,0,0,0,-1,-1,0,0,0,0,0,-1,0,0|0,1,0,0,0,0,0,0,0,0,0,0,0,0,0",
                "team_rank": 124,
                "team_score": 4,
                "opponent_id": 10815,
                "opponent_name": "Havan Liberty",
                "opponent_round_history": "1,1,1,1,2,0,0,1,1,1,2,1,0,1,1|-1,0,-2,-1,-1,0,0,0,0,0,0,0,0,0,0",
                "opponent_rank": 127,
                "opponent_score": 16,
                "pistol_1": false,
                "pistol_16": false,
                "is_win": false,
                "team_first_half_score": -3,
                "opponent_first_half_score": 12
            },
            {
                "id": 2345438,
                "match_date": "2020-11-15T22:15:00",
                "map_round": 2,
                "map_stat_id": 111874,
                "map_name": "Mirage",
                "match_id": 2345438,
                "team_id": 9996,
                "team_name": "9z",
                "team_round_history": "-1,-1,-1,0,-2,-1,-1,-2,0,-1,-2,-1,0,-1,-1|1,2,2,1,0,0,0,0,0,0,0,0,0,0,0",
                "team_rank": 130,
                "team_score": 16,
                "opponent_id": 7653,
                "opponent_name": "Isurus",
                "opponent_round_history": "0,0,0,1,0,0,0,0,1,0,0,0,1,0,0|0,0,0,0,0,0,0,0,0,0,0,0,0,0,0",
                "opponent_rank": 83,
                "opponent_score": 3,
                "pistol_1": true,
                "pistol_16": true,
                "is_win": true,
                "team_first_half_score": -12,
                "opponent_first_half_score": 3
            },
            {
                "id": 2345438,
                "match_date": "2020-11-15T22:15:00",
                "map_round": 1,
                "map_stat_id": 111873,
                "map_name": "Dust2",
                "match_id": 2345438,
                "team_id": 9996,
                "team_name": "9z",
                "team_round_history": "0,0,-2,-1,-1,-1,0,-1,-1,-2,-1,-1,-1,-1,-1|1,1,0,0,1,1,0,0,0,0,0,0,0,0,0",
                "team_rank": 130,
                "team_score": 16,
                "opponent_id": 7653,
                "opponent_name": "Isurus",
                "opponent_round_history": "1,1,0,0,0,0,1,0,0,0,0,0,0,0,0|0,0,-2,-2,0,0,0,0,0,0,0,0,0,0,0",
                "opponent_rank": 83,
                "opponent_score": 5,
                "pistol_1": false,
                "pistol_16": true,
                "is_win": true,
                "team_first_half_score": -12,
                "opponent_first_half_score": 3
            },
            {
                "id": 2345403,
                "match_date": "2020-11-13T22:00:00",
                "map_round": 3,
                "map_stat_id": 111751,
                "map_name": "Dust2",
                "match_id": 2345403,
                "team_id": 9996,
                "team_name": "9z",
                "team_round_history": "0,1,1,1,2,2,1,1,1,0,2,2,0,0,0|0,-1,-1,-1,-1,0,0,0,0,-1,-1,0,0,0,0",
                "team_rank": 130,
                "team_score": 16,
                "opponent_id": 10786,
                "opponent_name": "River Plate",
                "opponent_round_history": "-2,0,0,0,0,0,0,0,0,-1,0,0,-2,-1,-1|2,0,0,0,0,2,1,1,1,0,0,0,0,0,0",
                "opponent_rank": 200,
                "opponent_score": 10,
                "pistol_1": false,
                "pistol_16": false,
                "is_win": true,
                "team_first_half_score": 10,
                "opponent_first_half_score": -5
            },
            {
                "id": 2345403,
                "match_date": "2020-11-13T22:00:00",
                "map_round": 2,
                "map_stat_id": 111749,
                "map_name": "Mirage",
                "match_id": 2345403,
                "team_id": 9996,
                "team_name": "9z",
                "team_round_history": "1,1,1,1,1,1,1,1,0,1,1,1,1,0,2|-1,0,0,-1,-1,0,0,0,0,0,0,0,0,0,0",
                "team_rank": 130,
                "team_score": 16,
                "opponent_id": 10786,
                "opponent_name": "River Plate",
                "opponent_round_history": "0,0,0,0,0,0,0,0,-2,0,0,0,0,-1,0|0,2,1,0,0,0,0,0,0,0,0,0,0,0,0",
                "opponent_rank": 200,
                "opponent_score": 4,
                "pistol_1": true,
                "pistol_16": true,
                "is_win": true,
                "team_first_half_score": 13,
                "opponent_first_half_score": -2
            },
            {
                "id": 2345403,
                "match_date": "2020-11-13T22:00:00",
                "map_round": 1,
                "map_stat_id": 111747,
                "map_name": "Overpass",
                "match_id": 2345403,
                "team_id": 9996,
                "team_name": "9z",
                "team_round_history": "0,2,1,2,0,0,0,0,0,0,0,1,0,0,1|-1,-2,-1,0,0,0,-1,-1,0,0,0,0,0,0,0",
                "team_rank": 130,
                "team_score": 10,
                "opponent_id": 10786,
                "opponent_name": "River Plate",
                "opponent_round_history": "-1,0,0,0,-1,-2,-2,-1,-1,-1,-1,0,-2,-1,0|0,0,0,1,2,2,0,0,1,1,2,0,0,0,0",
                "opponent_rank": 200,
                "opponent_score": 16,
                "pistol_1": false,
                "pistol_16": true,
                "is_win": false,
                "team_first_half_score": 5,
                "opponent_first_half_score": -10
            },
            {
                "id": 2345382,
                "match_date": "2020-11-12T23:20:00",
                "map_round": 1,
                "map_stat_id": 111694,
                "map_name": "Nuke",
                "match_id": 2345382,
                "team_id": 9996,
                "team_name": "9z",
                "team_round_history": "-1,-2,-1,-1,-2,-1,-1,-1,-1,-1,-2,0,0,0,-1|0,1,1,1,1,0,0,0,0,0,0,0,0,0,0",
                "team_rank": 130,
                "team_score": 16,
                "opponent_id": 8871,
                "opponent_name": "Coscu Army",
                "opponent_round_history": "0,0,0,0,0,0,0,0,0,0,0,1,2,2,0|-1,0,0,0,0,0,0,0,0,0,0,0,0,0,0",
                "opponent_rank": 195,
                "opponent_score": 4,
                "pistol_1": true,
                "pistol_16": false,
                "is_win": true,
                "team_first_half_score": -12,
                "opponent_first_half_score": 3
            },
            {
                "id": 2345382,
                "match_date": "2020-11-12T23:20:00",
                "map_round": 2,
                "map_stat_id": 111696,
                "map_name": "Dust2",
                "match_id": 2345382,
                "team_id": 9996,
                "team_name": "9z",
                "team_round_history": "-1,-1,-2,-1,-1,-1,-2,-1,0,-1,-1,-1,-1,0,-1|0,1,1,1,0,0,0,0,0,0,0,0,0,0,0",
                "team_rank": 130,
                "team_score": 16,
                "opponent_id": 8871,
                "opponent_name": "Coscu Army",
                "opponent_round_history": "0,0,0,0,0,0,0,0,2,0,0,0,0,1,0|-1,0,0,0,0,0,0,0,0,0,0,0,0,0,0",
                "opponent_rank": 195,
                "opponent_score": 3,
                "pistol_1": true,
                "pistol_16": false,
                "is_win": true,
                "team_first_half_score": -13,
                "opponent_first_half_score": 2
            },
            {
                "id": 2345382,
                "match_date": "2020-11-12T23:20:00",
                "map_round": 1,
                "map_stat_id": 111694,
                "map_name": "Nuke",
                "match_id": 2345382,
                "team_id": 8871,
                "team_name": "Coscu Army",
                "team_round_history": "0,0,0,0,0,0,0,0,0,0,0,1,2,2,0|-1,0,0,0,0,0,0,0,0,0,0,0,0,0,0",
                "team_rank": 195,
                "team_score": 4,
                "opponent_id": 9996,
                "opponent_name": "9z",
                "opponent_round_history": "-1,-2,-1,-1,-2,-1,-1,-1,-1,-1,-2,0,0,0,-1|0,1,1,1,1,0,0,0,0,0,0,0,0,0,0",
                "opponent_rank": 130,
                "opponent_score": 16,
                "pistol_1": false,
                "pistol_16": true,
                "is_win": false,
                "team_first_half_score": 3,
                "opponent_first_half_score": -12
            },
            {
                "id": 2345382,
                "match_date": "2020-11-12T23:20:00",
                "map_round": 2,
                "map_stat_id": 111696,
                "map_name": "Dust2",
                "match_id": 2345382,
                "team_id": 8871,
                "team_name": "Coscu Army",
                "team_round_history": "0,0,0,0,0,0,0,0,2,0,0,0,0,1,0|-1,0,0,0,0,0,0,0,0,0,0,0,0,0,0",
                "team_rank": 195,
                "team_score": 3,
                "opponent_id": 9996,
                "opponent_name": "9z",
                "opponent_round_history": "-1,-1,-2,-1,-1,-1,-2,-1,0,-1,-1,-1,-1,0,-1|0,1,1,1,0,0,0,0,0,0,0,0,0,0,0",
                "opponent_rank": 130,
                "opponent_score": 16,
                "pistol_1": false,
                "pistol_16": true,
                "is_win": false,
                "team_first_half_score": 2,
                "opponent_first_half_score": -13
            },
            {
                "id": 2345256,
                "match_date": "2020-11-14T22:15:00",
                "map_round": 1,
                "map_stat_id": 111821,
                "map_name": "Nuke",
                "match_id": 2345256,
                "team_id": 9996,
                "team_name": "9z",
                "team_round_history": "0,0,0,-2,-2,0,-1,0,-1,-2,-2,-1,-1,-1,-1|0,0,0,0,0,1,1,1,1,1,1,0,0,0,0",
                "team_rank": 130,
                "team_score": 16,
                "opponent_id": 10793,
                "opponent_name": "Meta",
                "opponent_round_history": "2,1,1,0,0,1,0,1,0,0,0,0,0,0,0|-1,-1,-1,-2,-1,0,0,0,0,0,0,0,0,0,0",
                "opponent_rank": 159,
                "opponent_score": 10,
                "pistol_1": false,
                "pistol_16": false,
                "is_win": true,
                "team_first_half_score": -10,
                "opponent_first_half_score": 5
            },
            {
                "id": 2345256,
                "match_date": "2020-11-14T22:15:00",
                "map_round": 2,
                "map_stat_id": 111825,
                "map_name": "Mirage",
                "match_id": 2345256,
                "team_id": 9996,
                "team_name": "9z",
                "team_round_history": "1,1,1,1,1,2,0,1,2,1,1,2,1,1,2|-1,-1,0,0,0,0,0,0,0,0,0,0,0,0,0",
                "team_rank": 130,
                "team_score": 16,
                "opponent_id": 10793,
                "opponent_name": "Meta",
                "opponent_round_history": "0,0,0,0,0,0,-2,0,0,0,0,0,0,0,0|0,0,0,0,0,0,0,0,0,0,0,0,0,0,0",
                "opponent_rank": 159,
                "opponent_score": 1,
                "pistol_1": true,
                "pistol_16": true,
                "is_win": true,
                "team_first_half_score": 14,
                "opponent_first_half_score": -1
            },
            {
                "id": 2345255,
                "match_date": "2020-11-06T00:45:00",
                "map_round": 2,
                "map_stat_id": 111400,
                "map_name": "Nuke",
                "match_id": 2345255,
                "team_id": 8871,
                "team_name": "Coscu Army",
                "team_round_history": "0,0,1,2,1,0,0,0,0,1,0,0,2,0,0|-1,0,0,0,0,0,-1,0,0,0,0,0,0,0,0",
                "team_rank": null,
                "team_score": 7,
                "opponent_id": 10793,
                "opponent_name": "Meta",
                "opponent_round_history": "-1,-1,0,0,0,-2,-1,-2,-1,0,-1,-1,0,-1,-1|0,1,1,1,1,1,0,1,0,0,0,0,0,0,0",
                "opponent_rank": 169,
                "opponent_score": 16,
                "pistol_1": false,
                "pistol_16": true,
                "is_win": false,
                "team_first_half_score": 5,
                "opponent_first_half_score": -10
            },
            {
                "id": 2345255,
                "match_date": "2020-11-06T00:45:00",
                "map_round": 1,
                "map_stat_id": 111399,
                "map_name": "Inferno",
                "match_id": 2345255,
                "team_id": 8871,
                "team_name": "Coscu Army",
                "team_round_history": "0,0,0,0,2,2,2,0,0,0,0,1,0,0,0|0,0,0,0,-1,-2,-1,0,0,0,0,0,0,0,0",
                "team_rank": null,
                "team_score": 7,
                "opponent_id": 10793,
                "opponent_name": "Meta",
                "opponent_round_history": "-1,-1,-1,-1,0,0,0,-1,-2,-2,-1,0,-1,-1,-1|2,1,1,1,0,0,0,1,0,0,0,0,0,0,0",
                "opponent_rank": 169,
                "opponent_score": 16,
                "pistol_1": false,
                "pistol_16": false,
                "is_win": false,
                "team_first_half_score": 4,
                "opponent_first_half_score": -11
            },
            {
                "id": 2345171,
                "match_date": "2020-11-09T09:30:00",
                "map_round": 3,
                "map_stat_id": 111509,
                "map_name": "Train",
                "match_id": 2345171,
                "team_id": 9996,
                "team_name": "9z",
                "team_round_history": "-1,-2,-1,-2,0,0,-1,0,-1,0,0,0,-2,0,-2|1,1,2,0,0,0,0,1,0,0,0,0,2,1,1",
                "team_rank": 150,
                "team_score": 20,
                "opponent_id": 7653,
                "opponent_name": "Isurus",
                "opponent_round_history": "0,0,0,0,2,1,0,1,0,1,1,2,0,1,0|0,0,0,-1,-1,-1,-2,0,-1,-1,-2,-1,0,0,0",
                "opponent_rank": 91,
                "opponent_score": 22,
                "pistol_1": true,
                "pistol_16": true,
                "is_win": false,
                "team_first_half_score": -8,
                "opponent_first_half_score": 7
            },
            {
                "id": 2345171,
                "match_date": "2020-11-09T09:30:00",
                "map_round": 2,
                "map_stat_id": 111503,
                "map_name": "Overpass",
                "match_id": 2345171,
                "team_id": 9996,
                "team_name": "9z",
                "team_round_history": "0,0,0,1,0,2,0,1,1,2,1,1,0,0,1|-1,-2,-1,0,0,0,0,0,-1,0,0,-2,-1,0,-1",
                "team_rank": 150,
                "team_score": 16,
                "opponent_id": 7653,
                "opponent_name": "Isurus",
                "opponent_round_history": "-1,-2,-1,0,-1,0,-1,0,0,0,0,0,-2,-2,0|0,0,0,1,1,1,1,1,0,1,1,0,0,1,0",
                "opponent_rank": 91,
                "opponent_score": 19,
                "pistol_1": false,
                "pistol_16": true,
                "is_win": false,
                "team_first_half_score": 8,
                "opponent_first_half_score": -7
            },
            {
                "id": 2345171,
                "match_date": "2020-11-09T09:30:00",
                "map_round": 1,
                "map_stat_id": 111499,
                "map_name": "Nuke",
                "match_id": 2345171,
                "team_id": 9996,
                "team_name": "9z",
                "team_round_history": "0,0,0,0,0,-2,0,0,0,-1,-1,0,-1,-1,0|1,0,1,1,0,2,1,1,2,1,0,0,0,2,1",
                "team_rank": 150,
                "team_score": 19,
                "opponent_id": 7653,
                "opponent_name": "Isurus",
                "opponent_round_history": "1,1,1,1,1,0,1,3,1,0,0,1,0,0,3|0,-1,0,0,-1,0,0,0,0,0,-2,-2,-1,0,0",
                "opponent_rank": 91,
                "opponent_score": 17,
                "pistol_1": false,
                "pistol_16": true,
                "is_win": true,
                "team_first_half_score": -5,
                "opponent_first_half_score": 10
            },
            {
                "id": 2345168,
                "match_date": "2020-11-07T21:40:00",
                "map_round": 1,
                "map_stat_id": 111450,
                "map_name": "Mirage",
                "match_id": 2345168,
                "team_id": 9996,
                "team_name": "9z",
                "team_round_history": "-1,-1,-1,0,-1,-1,-1,0,-1,-2,-1,-1,-1,0,0|2,0,0,0,0,0,0,3,1,1,1,0,0,0,0",
                "team_rank": 150,
                "team_score": 16,
                "opponent_id": 7653,
                "opponent_name": "Isurus",
                "opponent_round_history": "0,0,0,3,0,0,0,3,0,0,0,0,0,3,2|0,-2,-1,-1,-1,-1,-2,0,0,0,0,0,0,0,0",
                "opponent_rank": 91,
                "opponent_score": 10,
                "pistol_1": true,
                "pistol_16": true,
                "is_win": true,
                "team_first_half_score": -11,
                "opponent_first_half_score": 4
            },
            {
                "id": 2345166,
                "match_date": "2020-11-07T19:00:00",
                "map_round": 1,
                "map_stat_id": 111445,
                "map_name": "Dust2",
                "match_id": 2345166,
                "team_id": 9996,
                "team_name": "9z",
                "team_round_history": "0,0,0,-1,0,-1,-1,-1,-1,-1,-2,-1,-2,-2,0|0,0,0,0,1,2,0,0,0,1,1,1,1,0,0",
                "team_rank": 150,
                "team_score": 16,
                "opponent_id": 10897,
                "opponent_name": "STMN",
                "opponent_round_history": "3,1,1,0,1,0,0,0,0,0,0,0,0,0,1|-1,-2,-1,-2,0,0,-1,-1,-1,0,0,0,0,0,0",
                "opponent_rank": null,
                "opponent_score": 12,
                "pistol_1": false,
                "pistol_16": false,
                "is_win": true,
                "team_first_half_score": -10,
                "opponent_first_half_score": 5
            },
            {
                "id": 2345160,
                "match_date": "2020-11-21T23:45:00",
                "map_round": 3,
                "map_stat_id": 112172,
                "map_name": "Mirage",
                "match_id": 2345160,
                "team_id": 8871,
                "team_name": "Coscu Army",
                "team_round_history": "2,0,0,0,1,1,0,0,0,0,0,0,0,0,0|0,0,0,0,0,0,0,0,0,0,0,0,0,0,0",
                "team_rank": 203,
                "team_score": 3,
                "opponent_id": 9941,
                "opponent_name": "Neverest",
                "opponent_round_history": "0,-1,-2,-1,0,0,-1,-2,-1,-1,-1,-1,-1,-1,-1|1,1,1,2,0,0,0,0,0,0,0,0,0,0,0",
                "opponent_rank": 234,
                "opponent_score": 16,
                "pistol_1": true,
                "pistol_16": false,
                "is_win": false,
                "team_first_half_score": 3,
                "opponent_first_half_score": -12
            },
            {
                "id": 2345160,
                "match_date": "2020-11-21T23:45:00",
                "map_round": 2,
                "map_stat_id": 112171,
                "map_name": "Overpass",
                "match_id": 2345160,
                "team_id": 8871,
                "team_name": "Coscu Army",
                "team_round_history": "-1,-2,-1,-2,0,0,0,-1,-2,-1,0,0,0,0,0|0,0,0,0,1,1,1,3,1,0,1,1,1,1,0",
                "team_rank": 203,
                "team_score": 16,
                "opponent_id": 9941,
                "opponent_name": "Neverest",
                "opponent_round_history": "0,0,0,0,1,1,1,0,0,0,2,1,1,1,1|-1,-1,-1,-2,0,0,0,0,0,-1,0,0,0,0,0",
                "opponent_rank": 234,
                "opponent_score": 13,
                "pistol_1": true,
                "pistol_16": false,
                "is_win": true,
                "team_first_half_score": -7,
                "opponent_first_half_score": 8
            },
            {
                "id": 2345160,
                "match_date": "2020-11-21T23:45:00",
                "map_round": 1,
                "map_stat_id": 112170,
                "map_name": "Nuke",
                "match_id": 2345160,
                "team_id": 8871,
                "team_name": "Coscu Army",
                "team_round_history": "0,0,0,0,0,0,0,1,0,0,0,1,1,0,0|-1,0,-1,0,-1,0,0,0,0,0,0,0,0,0,0",
                "team_rank": 203,
                "team_score": 6,
                "opponent_id": 9941,
                "opponent_name": "Neverest",
                "opponent_round_history": "-1,-1,-1,-1,-1,-1,-2,0,-1,-1,-1,0,0,-2,-1|0,3,0,1,0,1,2,0,0,0,0,0,0,0,0",
                "opponent_rank": 234,
                "opponent_score": 16,
                "pistol_1": false,
                "pistol_16": true,
                "is_win": false,
                "team_first_half_score": 3,
                "opponent_first_half_score": -12
            },
            {
                "id": 2345142,
                "match_date": "2020-11-01T23:20:00",
                "map_round": 2,
                "map_stat_id": 111202,
                "map_name": "Inferno",
                "match_id": 2345142,
                "team_id": 8871,
                "team_name": "Coscu Army",
                "team_round_history": "-1,0,0,0,-1,-1,-2,-1,-2,0,-1,0,-1,0,0|0,0,0,0,1,2,2,1,1,1,1,1,0,0,0",
                "team_rank": 216,
                "team_score": 16,
                "opponent_id": 10786,
                "opponent_name": "River Plate",
                "opponent_round_history": "0,1,1,2,0,0,0,0,0,1,0,1,0,1,1|-1,-2,-2,-2,0,0,0,0,0,0,0,0,0,0,0",
                "opponent_rank": 168,
                "opponent_score": 11,
                "pistol_1": true,
                "pistol_16": false,
                "is_win": true,
                "team_first_half_score": -8,
                "opponent_first_half_score": 7
            },
            {
                "id": 2345142,
                "match_date": "2020-11-01T23:20:00",
                "map_round": 1,
                "map_stat_id": 111201,
                "map_name": "Overpass",
                "match_id": 2345142,
                "team_id": 8871,
                "team_name": "Coscu Army",
                "team_round_history": "1,1,1,0,2,2,0,1,0,0,0,0,2,0,2|-1,0,-1,-1,-2,-1,-1,-1,-1,0,0,0,0,0,0",
                "team_rank": 216,
                "team_score": 16,
                "opponent_id": 10786,
                "opponent_name": "River Plate",
                "opponent_round_history": "0,0,0,-1,0,0,-2,0,-1,-2,-2,-2,0,-1,0|0,1,0,0,0,0,0,0,0,0,0,0,0,0,0",
                "opponent_rank": 168,
                "opponent_score": 8,
                "pistol_1": true,
                "pistol_16": true,
                "is_win": true,
                "team_first_half_score": 8,
                "opponent_first_half_score": -7
            }
        ]
    }
}